{
  "html_attributions": [],
  "result": {
    "address_components": [
      {
        "long_name": "1120",
        "short_name": "1120",
        "types": [
          "street_number"
        ]
      },
      {
        "long_name": "Avenue of the Americas",
        "short_name": "Avenue of the Americas",
        "types": [
          "route"
        ]
      },
      {
        "long_name": "New York",
        "short_name": "NY",
        "types": [
          "locality",
          "political"
        ]
      },
      {
        "long_name": "New York",
        "short_name": "NY",
        "types": [
          "administrative_area_level_1",
          "political"
        ]
      },
      {
        "long_name": "United States",
        "short_name": "US",
        "types": [
          "country",
          "political"
        ]
      },
      {
        "long_name": "10036",
        "short_name": "10036",
        "types": [
          "postal_code"
        ]
      },
      {
        "long_name": "6700",
        "short_name": "6700",
        "types": [
          "postal_code_suffix"
        ]
      }
    ],
    "adr_address": "<span class=\"street-address\">1120 Avenue of the Americas</span>, <span class=\"locality\">New York</span>, <span class=\"region\">NY</span> <span class=\"postal-code\">10036-6700</span>, <span class=\"country-name\">United States</span>",
    "formatted_address": "1120 Avenue of the Americas, New York, NY 10036, United States",
    "formatted_phone_number": "(212) 626-6528",
    "geometry": {
      "location": {
        "lat": 40.755636,
        "lng": -73.983323
      }
    },
    "icon": "http://maps.gstatic.com/mapfiles/place_api/icons/generic_business-71.png",
    "id": "3752e290c7d6f59d3d3f51482d9ebdf9a52b0e4b",
    "international_phone_number": "+1 212-626-6528",
    "name": "Esterow Events Consulting Inc",
    "place_id": "ChIJyYktV1VYwokRJQrXipkltKo",
    "reference": "CoQBcQAAAL_dh60rhwa8F6YVKwiN138-3fkpp4LTu3IDu-oIUmIH7tWQfFcn9qGrK6JFZRTn1Eh3sPfYBC5SBq6ceT09e_2bOo0hewnBm8s0erGXiEbaFuhHZOcwwMwZqOn2HLKrADGjMTZ85d-1Tk84i1y6nA4Eeupp3onWYlVl-0wzXH9nEhAkkquhGzpLiPTjlOqz0PJIGhSoj8l_jkoJthSKTbxBaW1HHk4YxQ",
    "scope": "GOOGLE",
    "types": [
      "establishment"
    ],
    "url": "https://plus.google.com/110775555032962087393/about?hl=en-US",
    "utc_offset": -240,
    "vicinity": "1120 Avenue of the Americas, New York"
  },
  "status": "OK"
}